#frame_rate[4]
#original_frame_count[18]
#frame_num[1]
A tiger cub







                           ("`-''-/").___..--''"`-._        
                            `6_ 6  )   `-.  (     ).`-.__.`)
                            (_Y_.)'  ._   )  `._ `. ``-..-' 
                          _..`--'_..-_/  /--'_..' ,'        
                        (il),-''  (li),'  ((!.-''           
end
#frame_num[2]
A tiger cub







                          ("`-''-/").___..--''"`-._         
                           `6_ 6  )   `-.  (     ).`-.__.`) 
                           (_Y_.)'  ._   )  `._ `. ``-..-'  
                          _.`--'_..-_/  /--'_..' ,'         
                        (il),-'' (li),'  ((!.-''            
end
#frame_num[3]
A tiger cub







                         ("`-''-/").___..--''"`-._          
                          `6_ 6  )   `-.  (     ).`-.__.`)  
                          (_Y_.)'  ._   )  `._ `. ``-..-'   
                          _`--'_..-_/  /--'_..' ,'          
                        (il),-'' (li),'  ((!.-''            
end
#frame_num[4]
A tiger cub







                        ("`-''-/").___..--''"`-._           
                         `6_ 6  )   `-.  (     ).`-.__.`)   
                         (_Y_.)'  ._   )  `._ `. ``-..-'    
                          `--'_..- _/ /--'_..' ,'           
                        (il),-'' (li),'  ((!.-''            
end
#frame_num[5]
A tiger cub







                       ("`-''-/").___..--''"`-._      _    
                        `6_ 6  )   `-.  (     ).`-._.` )   
                        (_Y_.)'  ._   )  `._ `. ``-..-'    
                         `--' _.- _/ /--'_..' ,'           
                          (il) (li),'  ((!.-''             
end
#frame_num[6]
A tiger cub






                                       _,''"`.       _     
                       ("`-''-/").___.- (     )_    / )    
                        `6_ 6  )   `-.   `_   ).`--` /     
                        (_Y_.)'  ._   )    ', . ``--'      
                         `--' _.- _/ /--'_.' ,'            
                          (il) (li),'  ((!.-'              
end
#frame_num[7]
A tiger cub






                                       _,''"`.      ,~     
                       ("`-''-/").___.- (     )_    \ |    
                        `6_ 6  )   `-.   `_   ).`--.' /    
                        (_Y_.)'  ._   )    ', . ``-..'     
                         `--' _.- _/ /--'_.' ,'            
                          (il) (li),'  ((!.-'              
end
#frame_num[8]
A tiger cub






                       ("`_''-/")      _,''"`.       _     
                        `6_ 6  ) '___.- (     )_    / )    
                        (_Y_.)'    `-.   `_   ).`--` /     
                         `--'. _.._   )    ', . ``--'      
                           _/ /   _/ /--'_.' ,'            
                         (il)' (li),'  ((!.-'              
end
#frame_num[9]
A tiger cub





                       ("`_''-/")                          
                        `6_ 6  ).      _,''"`.             
                        (_Y_.)'  `----' (     )_           
                         `--'.,    `-.   `_   ).`-.__.`)   
                             / _.._   )    ', . ``-..-'    
                           _/ /   _/ /--'_.' ,'            
                         (il)' (li),'  ((!.-'              
end
#frame_num[10]
A tiger cub




                       ("`_''-/")                          
                        `6_ 6  ).                          
                        (_Y_.)'  `------,''"`.             
                         `--'.       .  (     )_           
                             |  _._   \  `_   ).`-.__.`)   
                             / /   \  )--' ', . ``-..-'    
                           _/ /   _/ /   _.' ,'            
                         (il)'  (li)'  ((!.-'              
end
#frame_num[11]
A tiger cub



                       ("`_''-/")                          
                        `6_ 6  ).                          
                        (_Y_.)'  `._____,''"`.             
                         `--',                \            
                             '       .  (     )_           
                             |  _._   \  `_   ).`-.__.`)   
                             / /   \  )--' ', . ``-..-'    
                           _/ /   _/ /   _.' ,'            
                         (il)'  (li)'  ((!.-'              
end
#frame_num[12]
A tiger cub



                       ("`_''-/")                          
                        `6_ 6  ).                          
                        (_Y_.)'  `._____,''"`.             
                         `--',                \            
                             '       .  (     )_           
                             |  _._   \  `_   ).`-.__.`)   
                             / /   \  )--' ', . ``-..-'    
                           _/ /   _/ /   _.' ,'            
                         (il)'  (li)'  ((!.-'              
end
#frame_num[13]
A tiger cub

                    ,   .-'"'=;_  ,
                    |\.'-~`-.`-`;/|
                    \.` '.'~-.` './
                    (\`,__=-'__,'/)
                 _.-'-.( d_/b ).-'-._
               /'.-'   ' .---. '   '-.`\
             /'  .' (=    (_)    =) '.  `\
            /'  .',  `-.__.-.__.-'  ,'.  `\
           (     .'.   V       V  ; '.     )
           (    |::  `-,__.-.__,-'  ::|    )
           |   /|`:.               .:'|\   |
end
#frame_num[14]
                                      _______
                    ,   .-'"'=;_  ,  (       )
                    |\.'-~`-.`-`;/|  (  BOO  )
                    \.` '.'~-.` './  ( ______)
                    (\`,__=-'__,'/)  //
                 _.-'-.( d_/b ).-'-._
               /'.-'   ' .---. '   '-.`\
             /'  .' (=    (_)    =) '.  `\
            /'  .',  `-.__.-.__.-'  ,'.  `\
           (     .'.   V       V  ; '.     )
           (    |::  `-,__.-.__,-'  ::|    )
           |   /|`:.               .:'|\   |
end
#frame_num[15]
A tiger cub

                    ,   .-'"'=;_  ,
                    |\.'-~`-.`-`;/|
                    \.` '.'~-.` './
                    (\`,__=-'__,'/)
                 _.-'-.( d_/b ).-'-._
               /'.-'   ' .---. '   '-.`\
             /'  .' (=    (_)    =) '.  `\
            /'  .',  `-.__.-.__.-'  ,'.  `\
           (     .'.   V       V  ; '.     )
           (    |::  `-,__.-.__,-'  ::|    )
           |   /|`:.               .:'|\   |
end
#frame_num[16]
A tiger cub



                       ("`_''-/")                          
                        `()()  ).                          
                        (_Y_.)'  `._____,''"`.             
                         `--',                \            
                             '       .  (     )_           
                             |  _._   \  `_   ).`-.__.`)   
                             / /   \  )--' ', . ``-..-'    
                           _/ /   _/ /   _.' ,'            
                         (il)'  (li)'  ((!.-'              
end
#frame_num[17]
A tiger cub





                                                        .'"
                                                   ,---/   
                                                  / ,-(    
                                                 / /  (   ,
                                                ( (   /  / 
                                                 `-' /  /  
                                                     `,!)) 
end
#frame_num[18]
A tiger cub












end
stop